id,name,model_id:id,group_id:id,perm_read,perm_write,perm_create,perm_unlink
access_hotel_room_type_public,hotel.room_type.user,model_hotel_room_type,base.group_public,1,0,0,0
access_product_category_public,product.category.user,product.model_product_category,base.group_public,1,0,0,0
access_hotel_room_facility_public,access_hotel_room_facility.public,model_hotel_room_facility,base.group_public,1,0,0,0
access_hotel_room_facility_user,access_hotel_room_facility.user,model_hotel_room_facility,hotel.group_hotel_user,1,0,0,0
access_hotel_room_facility_public,access_hotel_room_facility.manager,model_hotel_room_facility,hotel.group_hotel_manager,1,0,0,0
access_hotel_room_image_public,access_hotel_room_image.public,model_hotel_room_image,base.group_public,1,0,0,0
access_hotel_room_image_user,access_hotel_room_image.user,model_hotel_room_image,hotel.group_hotel_user,1,0,0,0
access_hotel_room_image_manager,access_hotel_room_image.manager,model_hotel_room_image,hotel.group_hotel_manager,1,0,0,0