<?xml version="1.0" encoding="UTF-8" standalone="no"?>
<!-- Created with Inkscape (http://www.inkscape.org/) -->

<svg
   xmlns:dc="http://purl.org/dc/elements/1.1/"
   xmlns:cc="http://creativecommons.org/ns#"
   xmlns:rdf="http://www.w3.org/1999/02/22-rdf-syntax-ns#"
   xmlns:svg="http://www.w3.org/2000/svg"
   xmlns="http://www.w3.org/2000/svg"
   xmlns:sodipodi="http://sodipodi.sourceforge.net/DTD/sodipodi-0.dtd"
   xmlns:inkscape="http://www.inkscape.org/namespaces/inkscape"
   width="28.222223mm"
   height="29.860315mm"
   viewBox="0 0 100 105.80427"
   id="svg4089"
   version="1.1"
   inkscape:version="0.91 r13725"
   sodipodi:docname="oliveirahouse_icon_3.svg">
  <defs
     id="defs4091" />
  <sodipodi:namedview
     id="base"
     pagecolor="#ffffff"
     bordercolor="#666666"
     borderopacity="1.0"
     inkscape:pageopacity="0.0"
     inkscape:pageshadow="2"
     inkscape:zoom="3.959798"
     inkscape:cx="42.569093"
     inkscape:cy="39.009549"
     inkscape:document-units="px"
     inkscape:current-layer="layer1"
     showgrid="false"
     fit-margin-top="0"
     fit-margin-left="0"
     fit-margin-right="0"
     fit-margin-bottom="0"
     inkscape:window-width="1600"
     inkscape:window-height="836"
     inkscape:window-x="0"
     inkscape:window-y="27"
     inkscape:window-maximized="1" />
  <metadata
     id="metadata4094">
    <rdf:RDF>
      <cc:Work
         rdf:about="">
        <dc:format>image/svg+xml</dc:format>
        <dc:type
           rdf:resource="http://purl.org/dc/dcmitype/StillImage" />
        <dc:title></dc:title>
      </cc:Work>
    </rdf:RDF>
  </metadata>
  <g
     inkscape:label="Camada 1"
     inkscape:groupmode="layer"
     id="layer1"
     transform="translate(821.42857,-145.17436)">
    <g
       id="g24"
       transform="matrix(0.21769361,0,0,-0.21769361,-792.65132,250.33403)"
       style="fill:#f9f9f9">
      <path
         d="m 0,0 c 0,0 3.004,0.32 8.262,0.766 5.258,0.437 12.769,1.007 21.785,1.492 4.508,0.25 9.392,0.527 14.558,0.715 5.166,0.207 10.614,0.468 16.25,0.59 5.637,0.132 11.459,0.375 17.379,0.429 5.918,0.078 11.93,0.164 17.942,0.242 l 17.945,0 c 5.916,0.039 11.744,-0.136 17.385,-0.187 5.633,-0.055 11.086,-0.231 16.25,-0.375 5.172,-0.125 10.055,-0.328 14.57,-0.524 9.024,-0.367 16.539,-0.839 21.805,-1.211 5.265,-0.375 8.273,-0.656 8.273,-0.656 0,0 -3.008,-0.328 -8.265,-0.773 -5.258,-0.438 -12.774,-1.012 -21.789,-1.496 -4.508,-0.258 -9.391,-0.528 -14.555,-0.715 -5.164,-0.219 -10.613,-0.469 -16.25,-0.594 -5.633,-0.129 -11.461,-0.383 -17.377,-0.422 -5.918,-0.078 -11.932,-0.16 -17.943,-0.242 -6.014,0.004 -12.026,0.008 -17.946,0.008 -5.92,-0.024 -11.744,0.14 -17.381,0.195 -5.638,0.047 -11.089,0.235 -16.257,0.375 -5.168,0.117 -10.055,0.328 -14.567,0.524 C 21.055,-1.496 13.535,-1.023 8.271,-0.656 3.008,-0.281 0,0 0,0"
         style="fill:#f9f9f9;fill-opacity:1;fill-rule:nonzero;stroke:none"
         id="path26"
         inkscape:connector-curvature="0" />
    </g>
    <g
       id="g60"
       transform="matrix(0.21769361,0,0,-0.21769361,-782.32917,241.03442)"
       style="fill:#f9f9f9">
      <path
         d="m 0,0 -7.088,0 0,-15.43 -7.383,-0.59 0,37.504 7.383,0.594 0,-15.336 7.088,0 0,14.742 7.383,0.594 0,-37.508 L 0,-16.02 0,0 Z"
         style="fill:#f9f9f9;fill-opacity:1;fill-rule:nonzero;stroke:none"
         id="path62"
         inkscape:connector-curvature="0" />
    </g>
    <g
       id="g64"
       transform="matrix(0.21769361,0,0,-0.21769361,-776.96123,243.26238)"
       style="fill:#f9f9f9">
      <path
         d="m 0,0 c 0.984,0 1.768,0.336 2.352,1.016 0.582,0.679 1.023,1.656 1.328,2.929 0.302,1.266 0.496,2.813 0.578,4.621 0.082,1.809 0.123,3.848 0.123,6.11 0,0.785 -0.014,1.613 -0.037,2.472 -0.024,0.86 -0.086,1.75 -0.184,2.68 -0.099,0.922 -0.242,1.82 -0.431,2.692 -0.19,0.871 -0.448,1.636 -0.776,2.3 C 2.625,25.484 2.219,26.016 1.734,26.414 1.25,26.82 0.672,27.016 0,27.016 c -0.672,0 -1.246,-0.196 -1.723,-0.602 -0.476,-0.398 -0.873,-0.93 -1.193,-1.594 -0.32,-0.664 -0.574,-1.429 -0.764,-2.3 -0.187,-0.872 -0.332,-1.77 -0.429,-2.692 -0.098,-0.93 -0.161,-1.82 -0.184,-2.68 -0.025,-0.859 -0.039,-1.687 -0.039,-2.472 0,-2.262 0.043,-4.301 0.125,-6.11 0.082,-1.808 0.269,-3.355 0.566,-4.621 0.293,-1.273 0.729,-2.25 1.303,-2.929 C -1.764,0.336 -0.984,0 0,0 m 0,-6.277 c -1.607,0 -3.016,0.269 -4.221,0.808 -1.205,0.547 -2.244,1.297 -3.111,2.266 -0.871,0.969 -1.586,2.113 -2.143,3.437 -0.556,1.321 -1.002,2.75 -1.33,4.305 -0.328,1.547 -0.556,3.188 -0.687,4.906 -0.133,1.727 -0.197,3.473 -0.197,5.243 0,2.66 0.224,5.121 0.677,7.382 0.449,2.266 1.153,4.203 2.104,5.813 0.951,1.601 2.162,2.847 3.631,3.726 1.466,0.875 3.226,1.313 5.277,1.313 2.051,0 3.818,-0.438 5.305,-1.313 1.484,-0.879 2.707,-2.125 3.666,-3.726 0.959,-1.61 1.666,-3.547 2.115,-5.813 0.453,-2.261 0.678,-4.722 0.678,-7.382 0,-1.77 -0.067,-3.516 -0.198,-5.243 C 11.436,7.727 11.201,6.086 10.865,4.539 10.527,2.984 10.078,1.555 9.512,0.234 8.945,-1.09 8.227,-2.234 7.359,-3.203 6.488,-4.172 5.447,-4.922 4.234,-5.469 3.02,-6.008 1.607,-6.277 0,-6.277"
         style="fill:#f9f9f9;fill-opacity:1;fill-rule:nonzero;stroke:none"
         id="path66"
         inkscape:connector-curvature="0" />
    </g>
    <g
       id="g68"
       transform="matrix(0.21769361,0,0,-0.21769361,-773.23235,236.2928)"
       style="fill:#f9f9f9">
      <path
         d="m 0,0 7.383,0.297 0,-25.942 c 0,-0.753 0.023,-1.511 0.074,-2.261 0.047,-0.758 0.207,-1.438 0.479,-2.047 0.271,-0.602 0.681,-1.102 1.23,-1.484 0.549,-0.391 1.334,-0.579 2.35,-0.579 0.953,0 1.687,0.196 2.203,0.586 0.517,0.399 0.898,0.907 1.144,1.532 0.246,0.617 0.391,1.312 0.43,2.078 0.043,0.758 0.062,1.511 0.062,2.25 l 0,25.273 6.768,0.594 0,-24.492 c 0,-0.719 -0.018,-1.571 -0.049,-2.547 -0.033,-0.977 -0.152,-1.985 -0.357,-3.024 -0.205,-1.043 -0.537,-2.078 -0.996,-3.101 -0.459,-1.024 -1.119,-1.938 -1.983,-2.742 -0.859,-0.805 -1.961,-1.454 -3.297,-1.946 -1.336,-0.492 -2.98,-0.738 -4.933,-0.738 -1.82,0 -3.393,0.355 -4.713,1.07 -1.322,0.715 -2.412,1.676 -3.274,2.879 -0.861,1.203 -1.498,2.61 -1.908,4.219 C 0.203,-28.516 0,-26.828 0,-25.055 L 0,0 Z"
         style="fill:#f9f9f9;fill-opacity:1;fill-rule:nonzero;stroke:none"
         id="path70"
         inkscape:connector-curvature="0" />
    </g>
    <g
       id="g72"
       transform="matrix(0.21769361,0,0,-0.21769361,-763.92979,237.96461)"
       style="fill:#f9f9f9">
      <path
         d="M 0,0 C -0.25,0.555 -0.547,1.047 -0.883,1.477 -1.219,1.906 -1.625,2.242 -2.102,2.484 -2.578,2.734 -3.188,2.855 -3.922,2.855 -4.5,2.855 -5,2.75 -5.437,2.535 -5.875,2.32 -6.227,2.035 -6.508,1.672 -6.789,1.312 -6.996,0.898 -7.133,0.422 c -0.14,-0.477 -0.211,-0.977 -0.211,-1.5 0,-0.43 0.063,-0.828 0.196,-1.203 0.132,-0.383 0.308,-0.727 0.531,-1.039 0.219,-0.309 0.469,-0.594 0.75,-0.844 0.281,-0.258 0.555,-0.465 0.836,-0.629 L 1.07,-8.359 c 1.446,-0.821 2.625,-1.68 3.547,-2.579 0.914,-0.906 1.633,-1.796 2.153,-2.683 0.519,-0.887 0.871,-1.742 1.07,-2.57 0.199,-0.825 0.308,-1.575 0.348,-2.246 0,-1.821 -0.313,-3.485 -0.926,-4.985 -0.614,-1.5 -1.465,-2.781 -2.551,-3.848 -1.078,-1.066 -2.356,-1.886 -3.82,-2.472 -1.469,-0.578 -3.059,-0.871 -4.766,-0.871 -1.574,0 -3.016,0.238 -4.328,0.715 -1.313,0.476 -2.485,1.132 -3.508,1.976 -1.027,0.848 -1.914,1.852 -2.656,3.008 -0.75,1.156 -1.354,2.406 -1.811,3.75 l 6.248,2.93 c 0.36,-0.594 0.758,-1.243 1.18,-1.957 0.43,-0.715 0.906,-1.379 1.43,-1.996 0.523,-0.61 1.125,-1.125 1.797,-1.536 0.671,-0.41 1.453,-0.613 2.335,-0.613 0.446,0 0.868,0.102 1.27,0.305 0.402,0.203 0.754,0.484 1.059,0.836 0.304,0.351 0.547,0.758 0.738,1.207 0.191,0.449 0.285,0.926 0.285,1.418 0,1 -0.242,1.875 -0.726,2.633 -0.485,0.75 -1.079,1.359 -1.79,1.82 l -6.617,3.914 c -0.922,0.523 -1.758,1.121 -2.523,1.797 -0.762,0.672 -1.426,1.414 -1.992,2.226 -0.567,0.813 -1.008,1.684 -1.317,2.618 -0.312,0.937 -0.467,1.937 -0.467,3.003 0,1.676 0.297,3.204 0.901,4.59 0.594,1.383 1.414,2.578 2.461,3.578 1.039,1 2.277,1.778 3.711,2.328 1.437,0.547 2.992,0.825 4.664,0.825 2.562,0 4.75,-0.653 6.57,-1.965 C 4.859,5.484 6.207,3.574 7.078,1.059 L 0.828,-1.773 C 0.531,-1.148 0.258,-0.555 0,0"
         style="fill:#f9f9f9;fill-opacity:1;fill-rule:nonzero;stroke:none"
         id="path74"
         inkscape:connector-curvature="0" />
    </g>
    <g
       id="g76"
       transform="matrix(0.21769361,0,0,-0.21769361,-761.10317,236.22816)"
       style="fill:#f9f9f9">
      <path
         d="m 0,0 19.195,0 -0.593,-5.906 -11.219,0 0,-9.008 7.945,0 -0.023,-6.352 -7.922,0 0,-10.632 12.203,0 -0.586,-5.907 -19,0 L 0,0 Z"
         style="fill:#f9f9f9;fill-opacity:1;fill-rule:nonzero;stroke:none"
         id="path78"
         inkscape:connector-curvature="0" />
    </g>
  </g>
</svg>
